[
  {
    "model": "product.product",
    "fields": {
      "name": "Bánh Muffin Việt Quất",
      "description": "Bánh muffin với việt quất và mứt dâu.",
      "image": "products/banh-muffin-viet-quat.jpg",
      "unit_price": 30000,
      "created_at": "2020-12-02T12:31:47+07:00",
      "modified_at": "2020-12-02T12:31:47+07:00"
    }
  },
  {
    "model": "product.product",
    "fields": {
      "name": "Chuối Sữa",
      "description": "Chuối cắt lát ngâm sữa.",
      "image": "products/chuoi-sua.jpg",
      "unit_price": 15000,
      "created_at": "2020-12-02T12:31:47+07:00",
      "modified_at": "2020-12-02T12:31:47+07:00"
    }
  },
  {
    "model": "product.product",
    "fields": {
      "name": "Nước Cam Vắt",
      "description": "Cam vắt",
      "image": "products/nuoc-cam-vat.jpg",
      "unit_price": 30000,
      "created_at": "2020-12-02T12:31:47+07:00",
      "modified_at": "2020-12-02T12:31:47+07:00"
    }
  },
  {
    "model": "product.product",
    "fields": {
      "name": "Nước Chanh Tươi",
      "description": "Nước chanh tươi.",
      "image": "products/nuoc-chanh-tuoi.jpg",
      "unit_price": 30000,
      "created_at": "2020-12-02T12:31:47+07:00",
      "modified_at": "2020-12-02T12:31:47+07:00"
    }
  },
  {
    "model": "product.product",
    "fields": {
      "name": "Snack Trái Cây",
      "description": "Trái cây sấy khô.",
      "image": "products/snack-trai-cay.jpg",
      "unit_price": 30000,
      "created_at": "2020-12-02T12:31:47+07:00",
      "modified_at": "2020-12-02T12:31:47+07:00"
    }
  },
  {
    "model": "product.product",
    "fields": {
      "name": "Sữa Dừa Tươi",
      "description": "",
      "image": "products/sua-dua-tuoi.jpg",
      "unit_price": 30000,
      "created_at": "2020-12-02T12:31:47+07:00",
      "modified_at": "2020-12-02T12:31:47+07:00"
    }
  },
  {
    "model": "product.product",
    "fields": {
      "name": "Táo Ngâm Đường",
      "description": "",
      "image": "products/tao-duong.jpg",
      "unit_price": 30000,
      "created_at": "2020-12-02T12:31:47+07:00",
      "modified_at": "2020-12-02T12:31:47+07:00"
    }
  },
  {
    "model": "product.product",
    "fields": {
      "name": "Sinh Tố Dâu",
      "description": "Sinh tố dâu tươi.",
      "image": "products/to-dau.jpg",
      "unit_price": 30000,
      "created_at": "2020-12-02T12:31:47+07:00",
      "modified_at": "2020-12-02T12:31:47+07:00"
    }
  }
]
